InvoiceNumber,Item,Amount,Tax,Total,Currency,Date
792880,"Concierge Services",289220,57844,347064,RON,2017-01-28
293121,"Beverages and Catering",151406,30281.2,181687,RON,2017-01-05
693037,"Waste management services",158289,31657.8,189947,RON,2017-01-10
